{
    "how_it_works_card_1_headline": "Вирішіть, хто буде у вашому колі",
    "how_it_works_card_3_call_to_action": "Отримати гру",
    "features_card_2_headline": "Зашифровані розмови",
    "text_direction": "бкв",
    "website_name": "Círculo",
    "locale_en": "English (Англійська)",
    "website_headline_1": "Безпека починається зі спільноти",
    "features_card_4_headline": "Історії не зберігаються",
    "locale_es": "Español (Іспанська)",
    "how_it_works_cards": 4,
    "how_it_works_card_1_content": "Коло складається з 6 довірених пірів, які спільно погоджуються підтримувати один одного.",
    "what_you_can_do_headline": "Що можна робити за допомогою застосунку",
    "ask_for_help_content": "Надсилайте сповіщення тим, кому ви довіряєте за нагальної чи незначної потреби. Círculo – це захищене місце, яким можна поділитися з вашим колом.",
    "stay_informed_headline": "Будьте в курсі",
    "developers_headline": "Розроблено з турботою",
    "features_card_1_headline": "Немає е-пошти чи номера телефону",
    "features_card_3_headline": "Функції блокування та маскування",
    "footer_learn_more_list": 3,
    "footer_learn_more_list_2_content": "Стаття 19 (Партнер)",
    "how_it_works_card_2_call_to_action": "Відвідайте Seguridad Integral",
    "how_it_works_card_4_headline": "Використовуйте Círculo, щоб залишатися на зв'язку",
    "developers_content": "Círculo було створено завдяки партнерству з провідними організаціями, які займаються питаннями прав людини, цифрової приватності та фізичної безпеки.",
    "website_headline_2": "Círculo допомагає під'єднати вас до надійної мережі з шести однорангових пристроїв. Установлюйте протоколи, надсилайте сповіщення та повідомляйте людей із вашого кола.",
    "website_headline_image_2": "assets/images/en/home.svg",
    "how_it_works_headline": "Як це працює",
    "website_headline_image_1": "assets/images/en/our_circle.svg",
    "how_it_works_card_2_headline": "Визначте свої протоколи безпеки",
    "how_it_works_card_2_content": "Належні протоколи безпеки можуть змінити становище. Встановіть ті, які мають сенс для вашого кола. Стаття 19 може допомогти.",
    "how_it_works_card_2_call_to_action_url": "https://seguridadintegral.articulo19.org/",
    "how_it_works_card_3_headline": "Укладіть соціальну угоду",
    "how_it_works_card_3_content": "Поговоріть зі своїм колом про те, що вам потрібно один від одного. Гра «Знайди мене на Circulo» покликана допомогти цій дискусії.",
    "how_it_works_card_4_content": "Щоб почати, завантажте застосунок Circulo та створіть посилання для запрошення для свого кола.",
    "ask_for_help_headline": "Попросити про допомогу",
    "website_intro": "Círculo — це безпечний цифровий простір, коли журналісти, активісти та правозахисники почуваються небезпечно. Він пропонує безпечну форму спілкування для людей, які можуть спиратися на свої мережі та спільноти, коли вони стикаються з переслідуваннями та насильством і кидають виклик.\n\nЦей засіб був створений як зусилля проєкту Guardian та ARTICLE 19, заснований на досвіді, потребах та турботах жінок, які займають центральну роль у суспільстві, працюючи у журналістській діяльності, соціальних ініціативах та мобілізації на захист прав людини.\n\nВ основі застосунку лежить полегшеність, яка гарантує, що кожного журналіста, активіста та правозахисника підтримує спільнота, яка сама вибирає. Це може допомогти пом’якшити вигорання і травми, а отже, і самоцензуру у галузях роботи з високим ризиком.",
    "share_location_headline": "Повідомляйте про безпечні місця під час подорожі.",
    "stay_informed_content": "Círculo надає пріоритет ситуаціям, які найбільше потребують вашої уваги.",
    "share_location_content": "Коли ви ділитеся своїм місцеперебуванням у Círculo, воно шифрується і надсилається лише вашому колу. Застосунок не відстежує, не розкриває та не використовує ваше місцеперебування.",
    "features_cards": 4,
    "call_to_action_content": "Переглянути ресурси",
    "disclaimer_content": "Зверніть увагу: застосунок сам по собі не забезпечує реагування на надзвичайні ситуації. Це просто допоможе вам повідомляти людей і вказувати, що вам потрібно. Для надсилання та отримання повідомлень потрібне під'єднання до Інтернету.",
    "footer_learn_more_list_1_content": "Guardian Project (Розробник)",
    "call_to_action_headline": "Перегляньте ресурси нашої спільноти",
    "footer_learn_more_headline": "Докладніше",
    "community_resources_list_2_call_to_action": 2,
    "community_resources_list_3_headline": "Пропозиція підтримки журналісток",
    "community_resources_list_3_tagline": "Додаткові відомості",
    "community_resources_call_to_action_headline": "Потрібна допомога?",
    "community_resources_list_1_tagline": "Seguridad Integral",
    "community_resources_list_2_call_to_action_2_url": "assets/documents/Find_Me_On_Circulo_Game-SPANISH_v1.pdf",
    "invitation_headline": "Вас запросили до кола.",
    "ask_for_help_image": "assets/images/en/status.svg",
    "share_location_notification_repeat": 3,
    "footer_free_software_headline": "Вільне програмне забезпечення",
    "share_location_notification": "assets/images/en/location.svg",
    "footer_learn_more_list_3_content": "Ресурси спільноти",
    "community_resources_headline": "Ресурси спільноти",
    "copyright": "Авторське право ©2021 Усі права застережено",
    "footer_free_software_content": "Цей застосунок має вільний і відкритий програмний код. Дізнайтеся більше і допоможіть нам в його створення на <https://gitlab.com/circuloapp>.",
    "community_resources_content": "Якщо ви хочете розгорнути Círculo зі своєю спільнотою, ось деякі ресурси, які допоможуть вам.",
    "community_resources_permalink": "community-resources/",
    "community_resources_list": 3,
    "community_resources_list_1_headline": "Ознайомтеся з протоколами фізичної безпеки",
    "community_resources_list_3_call_to_action_1_help": "Англійською",
    "invitation_content": "Установіть застосунок Círculo, а потім знову торкніться посилання запрошення, щоб приєднатися.",
    "community_resources_list_1_call_to_action": 1,
    "community_resources_list_2_call_to_action_1_content": "ЗАВАНТАЖИТИ МАТЕРІАЛИ",
    "community_resources_list_2_call_to_action_1_url": "assets/documents/Find_Me_On_Circulo_Game-ENGLISH_v1.pdf",
    "community_resources_list_3_call_to_action_1_content": "ЗАВАНТАЖИТИ ВИДАННЯ",
    "community_resources_license_url": "https://creativecommons.org/licenses/by-sa/4.0/",
    "community_resources_list_1_content": "Ознайомтеся з «Інтегральною безпекою для журналістів» статті 19, Офісу у справах Мексики та Центральної Америки, де ви можете знайти інструменти з фізичної безпеки, цифрової безпеки, правил, права на інформацію, серед інших тем, які можуть допомогти журналістам та правозахисникам зменшити ризики, пов'язані з їхньою роботою.",
    "community_resources_list_1_call_to_action_1_content": "Відвідати Seguridad Integral",
    "community_resources_list_1_image": "assets/images/seguridad_integral.png",
    "community_resources_list_2_headline": "Створення суспільних зобов'язань",
    "community_resources_list_2_call_to_action_1_help": "Англійською",
    "community_resources_list_2_call_to_action_2_help": "Іспанською",
    "community_resources_list_2_image": "assets/images/game.png",
    "community_resources_list_3_call_to_action": 2,
    "community_resources_list_3_call_to_action_2_help": "Іспанською",
    "community_resources_license_image": "assets/images/cc_by_sa.png",
    "community_resources_call_to_action": "Переглянути ресурси",
    "community_resources_list_2_tagline": "Знайди мене на Círculo: Гра",
    "community_resources_list_2_content": "«Знайди мене на Circulo» — це рольова гра, яка веде гравців ситуаціями, коли потрібна емоційна підтримка, фізична допомога чи просто солідарність. Мета гри полягає в реалізації зобов’язань, взятих на себе, приєднанням до кола на Círculo.",
    "community_resources_list_2_call_to_action_2_content": "ЗАВАНТАЖИТИ МАТЕРІАЛИ",
    "community_resources_list_3_call_to_action_2_content": "ЗАВАНТАЖИТИ ВИДАННЯ",
    "invitation_permalink": "i/",
    "invitation_more_options": "Додаткові параметри завантаження &#9660;",
    "invitation_less_options": "Згорнути параметри &#9650;",
    "direct_download_content": "Пряме завантаження",
    "direct_download_help": "Android APK",
    "community_resources_license_content": "Ці роботи ліцензовані за ліцензією Creative Commons Attribution-ShareAlike 4.0 міжнародна.",
    "invitation_call_to_action": "Ознайомитися з Círculo &#8594;",
    "community_resources_list_3_content": "У цьому документі пропонується огляд насильства проти жінок журналістів в Мексиці, Гватемалі та Гондурасі, картографування характеристик журналістських вправ і гендерних проявів на певній території. Виходячи з раніше вказаного, визначено, що ворожі сценарії продовжать бути постійними у професійній практиці журналісток, доки не будуть впроваджені необхідні структурні зміни для зменшення насильства проти преси та насильства проти жінок. Проте, щоб у короткостроковій перспективі зробити свій внесок у відчуття безпеки журналісток та прагнучи, щоб вони продовжували свою важливу роботу, Guardian Project та ARTICLE 19 представляють Círculo.",
    "stay_informed_notifications": 3,
    "stay_informed_notification_2_image": "assets/images/en/ana.svg",
    "stay_informed_notification_3_image": "assets/images/en/marta.svg",
    "developers_videos": 2,
    "developer_video_1_url": "https://www.youtube.com/watch?v=IvFcg8WYY68",
    "developer_video_1_image": "https://i3.ytimg.com/vi/IvFcg8WYY68/hqdefault.jpg",
    "developer_video_2_url": "https://www.youtube.com/watch?v=ujxzMx_YjjI",
    "developer_video_2_image": "https://i3.ytimg.com/vi/ujxzMx_YjjI/hqdefault.jpg",
    "stay_informed_notification_1_image": "assets/images/en/mariel.svg",
    "community_resources_call_to_action_content": "Якщо у вас виникли запитання чи маєте пропозиції, зв’яжіться зі службою підтримки Guardian Project.",
    "community_resources_list_3_call_to_action_1_url": "assets/docs/A19CirculoReport2021_en.pdf",
    "community_resources_list_3_call_to_action_2_url": "assets/docs/A19CirculoReport2021_es.pdf",
    "community_resources_call_to_action_url": "mailto:support@guardianproject.info",
    "locale_current": "(поточна мова)",
    "locale_available": "Доступні мови",
    "more_locales": "Інші переклади",
    "menu": "Відкрити меню",
    "locale_name": "Англійська"
}
